Copyright 1986-2015 Xilinx, Inc. All Rights Reserved.
-------------------------------------------------------------------------------------------------------------------------------
| Tool Version     : Vivado v.2015.1 (lin64) Build 1215546 Mon Apr 27 19:07:21 MDT 2015
| Date             : Wed Jun 15 11:06:09 2016
| Host             : ubuntu running 64-bit Ubuntu 14.04.2 LTS
| Command          : report_power -file design_1_wrapper_power_routed.rpt -pb design_1_wrapper_power_summary_routed.pb
| Design           : design_1_wrapper
| Device           : xc7z020clg484-1
| Design State     : Routed
| Grade            : commercial
| Process          : typical
| Characterization : Production
-------------------------------------------------------------------------------------------------------------------------------

Power Report

Table of Contents
-----------------
1. Summary
1.1 On-Chip Components
1.2 Power Supply Summary
1.3 Confidence Level
2. Settings
2.1 Environment
2.2 Clock Constraints
3. Detailed Reports
3.1 By Hierarchy

1. Summary
----------

+--------------------------+-------+
| Total On-Chip Power (W)  | 1.891 |
| Dynamic (W)              | 1.715 |
| Device Static (W)        | 0.177 |
| Effective TJA (C/W)      | 11.5  |
| Max Ambient (C)          | 63.2  |
| Junction Temperature (C) | 46.8  |
| Confidence Level         | Low   |
| Setting File             | ---   |
| Simulation Activity File | ---   |
| Design Nets Matched      | NA    |
+--------------------------+-------+


1.1 On-Chip Components
----------------------

+--------------------------+-----------+----------+-----------+-----------------+
| On-Chip                  | Power (W) | Used     | Available | Utilization (%) |
+--------------------------+-----------+----------+-----------+-----------------+
| Clocks                   |     0.045 |        3 |       --- |             --- |
| Slice Logic              |     0.020 |    35639 |       --- |             --- |
|   LUT as Logic           |     0.016 |    12835 |     53200 |           24.13 |
|   CARRY4                 |     0.003 |     1202 |     13300 |            9.04 |
|   Register               |    <0.001 |    16604 |    106400 |           15.61 |
|   LUT as Distributed RAM |    <0.001 |      206 |     17400 |            1.18 |
|   LUT as Shift Register  |    <0.001 |      530 |     17400 |            3.05 |
|   F7/F8 Muxes            |    <0.001 |       72 |     53200 |            0.14 |
|   Others                 |     0.000 |     1139 |       --- |             --- |
| Signals                  |     0.043 |    26478 |       --- |             --- |
| Block RAM                |     0.074 |      140 |       140 |          100.00 |
| PS7                      |     1.533 |        1 |       --- |             --- |
| Static Power             |     0.177 |          |           |                 |
| Total                    |     1.891 |          |           |                 |
+--------------------------+-----------+----------+-----------+-----------------+


1.2 Power Supply Summary
------------------------

+-----------+-------------+-----------+-------------+------------+
| Source    | Voltage (V) | Total (A) | Dynamic (A) | Static (A) |
+-----------+-------------+-----------+-------------+------------+
| Vccint    |       1.000 |     0.198 |       0.176 |      0.021 |
| Vccaux    |       1.800 |     0.021 |       0.000 |      0.021 |
| Vcco33    |       3.300 |     0.001 |       0.000 |      0.001 |
| Vcco25    |       2.500 |     0.000 |       0.000 |      0.000 |
| Vcco18    |       1.800 |     0.001 |       0.000 |      0.001 |
| Vcco15    |       1.500 |     0.001 |       0.000 |      0.001 |
| Vcco135   |       1.350 |     0.000 |       0.000 |      0.000 |
| Vcco12    |       1.200 |     0.000 |       0.000 |      0.000 |
| Vccaux_io |       1.800 |     0.000 |       0.000 |      0.000 |
| Vccbram   |       1.000 |     0.016 |       0.005 |      0.011 |
| MGTAVcc   |       1.000 |     0.000 |       0.000 |      0.000 |
| MGTAVtt   |       1.200 |     0.000 |       0.000 |      0.000 |
| MGTVccaux |       1.800 |     0.000 |       0.000 |      0.000 |
| Vccpint   |       1.000 |     0.755 |       0.722 |      0.032 |
| Vccpaux   |       1.800 |     0.061 |       0.051 |      0.010 |
| Vccpll    |       1.800 |     0.017 |       0.014 |      0.003 |
| Vcco_ddr  |       1.500 |     0.459 |       0.457 |      0.002 |
| Vcco_mio0 |       3.300 |     0.003 |       0.002 |      0.001 |
| Vcco_mio1 |       1.800 |     0.003 |       0.002 |      0.001 |
| Vccadc    |       1.800 |     0.020 |       0.000 |      0.020 |
+-----------+-------------+-----------+-------------+------------+


1.3 Confidence Level
--------------------

+-----------------------------+------------+--------------------------------------------------------+------------------------------------------------------------------------------------------------------------+
| User Input Data             | Confidence | Details                                                | Action                                                                                                     |
+-----------------------------+------------+--------------------------------------------------------+------------------------------------------------------------------------------------------------------------+
| Design implementation state | High       | Design is routed                                       |                                                                                                            |
| Clock nodes activity        | High       | User specified more than 95% of clocks                 |                                                                                                            |
| I/O nodes activity          | Low        | More than 75% of inputs are missing user specification | Provide missing input activity with simulation results or by editing the "By Resource Type -> I/Os" view   |
| Internal nodes activity     | Medium     | User specified less than 25% of internal nodes         | Provide missing internal nodes activity with simulation results or by editing the "By Resource Type" views |
| Device models               | High       | Device models are Production                           |                                                                                                            |
|                             |            |                                                        |                                                                                                            |
| Overall confidence level    | Low        |                                                        |                                                                                                            |
+-----------------------------+------------+--------------------------------------------------------+------------------------------------------------------------------------------------------------------------+


2. Settings
-----------

2.1 Environment
---------------

+-----------------------+------------------------+
| Ambient Temp (C)      | 25.0                   |
| ThetaJA (C/W)         | 11.5                   |
| Airflow (LFM)         | 250                    |
| Heat Sink             | none                   |
| ThetaSA (C/W)         | 0.0                    |
| Board Selection       | medium (10"x10")       |
| # of Board Layers     | 8to11 (8 to 11 Layers) |
| Board Temperature (C) | 25.0                   |
+-----------------------+------------------------+


2.2 Clock Constraints
---------------------

+------------+-------------------------------------------------------------+-----------------+
| Clock      | Domain                                                      | Constraint (ns) |
+------------+-------------------------------------------------------------+-----------------+
| clk_fpga_0 | design_1_i/processing_system7_0/inst/FCLK_CLK_unbuffered[0] |            10.0 |
+------------+-------------------------------------------------------------+-----------------+


3. Detailed Reports
-------------------

3.1 By Hierarchy
----------------

+-------------------------------------------------------------------------------+-----------+
| Name                                                                          | Power (W) |
+-------------------------------------------------------------------------------+-----------+
| design_1_wrapper                                                              |     1.715 |
|   design_1_i                                                                  |     1.715 |
|     KMPAlgorithmPrISMA_0                                                      |     0.033 |
|       inst                                                                    |     0.033 |
|         KMPAlgorithmPrISMA_DMA_In_if_U                                        |    <0.001 |
|           DMA_In_V_data_V_fifo                                                |    <0.001 |
|           DMA_In_V_last_V_fifo                                                |    <0.001 |
|           rs                                                                  |    <0.001 |
|         KMPAlgorithmPrISMA_DMA_Out_if_U                                       |    <0.001 |
|           DMA_Out_V_data_V_fifo                                               |    <0.001 |
|           DMA_Out_V_last_V_fifo                                               |    <0.001 |
|           rs                                                                  |    <0.001 |
|         KMPAlgorithmPrISMA_U                                                  |     0.032 |
|           Pchar_U                                                             |    <0.001 |
|             KMPAlgorithmPrISMA_Pchar_ram_U                                    |    <0.001 |
|               ram_reg_0_127_0_0                                               |    <0.001 |
|               ram_reg_0_127_1_1                                               |    <0.001 |
|               ram_reg_0_127_2_2                                               |    <0.001 |
|               ram_reg_0_127_3_3                                               |    <0.001 |
|               ram_reg_0_127_4_4                                               |    <0.001 |
|               ram_reg_0_127_5_5                                               |    <0.001 |
|               ram_reg_0_127_6_6                                               |    <0.001 |
|               ram_reg_0_127_7_7                                               |    <0.001 |
|               ram_reg_0_31_0_0                                                |    <0.001 |
|               ram_reg_0_31_0_0__0                                             |    <0.001 |
|               ram_reg_0_31_0_0__1                                             |    <0.001 |
|               ram_reg_0_31_0_0__2                                             |    <0.001 |
|               ram_reg_0_31_0_0__3                                             |    <0.001 |
|               ram_reg_0_31_0_0__4                                             |    <0.001 |
|               ram_reg_0_31_0_0__5                                             |    <0.001 |
|               ram_reg_0_31_0_0__6                                             |    <0.001 |
|           Tchar_U                                                             |     0.021 |
|             KMPAlgorithmPrISMA_Tchar_ram_U                                    |     0.021 |
|           d_U                                                                 |     0.002 |
|             KMPAlgorithmPrISMA_pref_ram_U                                     |     0.002 |
|           grp_KMPAlgorithmPrISMA_FunzionePrefisso_fu_328                      |     0.004 |
|           pref_U                                                              |    <0.001 |
|             KMPAlgorithmPrISMA_pref_ram_U                                     |    <0.001 |
|     KMPAlgorithmPrISMA_1                                                      |     0.034 |
|       inst                                                                    |     0.034 |
|         KMPAlgorithmPrISMA_DMA_In_if_U                                        |    <0.001 |
|           DMA_In_V_data_V_fifo                                                |    <0.001 |
|           DMA_In_V_last_V_fifo                                                |    <0.001 |
|           rs                                                                  |    <0.001 |
|         KMPAlgorithmPrISMA_DMA_Out_if_U                                       |    <0.001 |
|           DMA_Out_V_data_V_fifo                                               |    <0.001 |
|           DMA_Out_V_last_V_fifo                                               |    <0.001 |
|           rs                                                                  |    <0.001 |
|         KMPAlgorithmPrISMA_U                                                  |     0.033 |
|           Pchar_U                                                             |    <0.001 |
|             KMPAlgorithmPrISMA_Pchar_ram_U                                    |    <0.001 |
|               ram_reg_0_127_0_0                                               |    <0.001 |
|               ram_reg_0_127_1_1                                               |    <0.001 |
|               ram_reg_0_127_2_2                                               |    <0.001 |
|               ram_reg_0_127_3_3                                               |    <0.001 |
|               ram_reg_0_127_4_4                                               |    <0.001 |
|               ram_reg_0_127_5_5                                               |    <0.001 |
|               ram_reg_0_127_6_6                                               |    <0.001 |
|               ram_reg_0_127_7_7                                               |    <0.001 |
|               ram_reg_0_31_0_0                                                |    <0.001 |
|               ram_reg_0_31_0_0__0                                             |    <0.001 |
|               ram_reg_0_31_0_0__1                                             |    <0.001 |
|               ram_reg_0_31_0_0__2                                             |    <0.001 |
|               ram_reg_0_31_0_0__3                                             |    <0.001 |
|               ram_reg_0_31_0_0__4                                             |    <0.001 |
|               ram_reg_0_31_0_0__5                                             |    <0.001 |
|               ram_reg_0_31_0_0__6                                             |    <0.001 |
|           Tchar_U                                                             |     0.023 |
|             KMPAlgorithmPrISMA_Tchar_ram_U                                    |     0.023 |
|           d_U                                                                 |     0.001 |
|             KMPAlgorithmPrISMA_pref_ram_U                                     |     0.001 |
|           grp_KMPAlgorithmPrISMA_FunzionePrefisso_fu_328                      |     0.003 |
|           pref_U                                                              |    <0.001 |
|             KMPAlgorithmPrISMA_pref_ram_U                                     |    <0.001 |
|     KMPAlgorithmPrISMA_2                                                      |     0.025 |
|       inst                                                                    |     0.025 |
|         KMPAlgorithmPrISMA_DMA_In_if_U                                        |    <0.001 |
|           DMA_In_V_data_V_fifo                                                |    <0.001 |
|           DMA_In_V_last_V_fifo                                                |    <0.001 |
|           rs                                                                  |    <0.001 |
|         KMPAlgorithmPrISMA_DMA_Out_if_U                                       |    <0.001 |
|           DMA_Out_V_data_V_fifo                                               |    <0.001 |
|           DMA_Out_V_last_V_fifo                                               |    <0.001 |
|           rs                                                                  |    <0.001 |
|         KMPAlgorithmPrISMA_U                                                  |     0.024 |
|           Pchar_U                                                             |    <0.001 |
|             KMPAlgorithmPrISMA_Pchar_ram_U                                    |    <0.001 |
|               ram_reg_0_127_0_0                                               |    <0.001 |
|               ram_reg_0_127_1_1                                               |    <0.001 |
|               ram_reg_0_127_2_2                                               |    <0.001 |
|               ram_reg_0_127_3_3                                               |    <0.001 |
|               ram_reg_0_127_4_4                                               |    <0.001 |
|               ram_reg_0_127_5_5                                               |    <0.001 |
|               ram_reg_0_127_6_6                                               |    <0.001 |
|               ram_reg_0_127_7_7                                               |    <0.001 |
|               ram_reg_0_31_0_0                                                |    <0.001 |
|               ram_reg_0_31_0_0__0                                             |    <0.001 |
|               ram_reg_0_31_0_0__1                                             |    <0.001 |
|               ram_reg_0_31_0_0__2                                             |    <0.001 |
|               ram_reg_0_31_0_0__3                                             |    <0.001 |
|               ram_reg_0_31_0_0__4                                             |    <0.001 |
|               ram_reg_0_31_0_0__5                                             |    <0.001 |
|               ram_reg_0_31_0_0__6                                             |    <0.001 |
|           Tchar_U                                                             |     0.015 |
|             KMPAlgorithmPrISMA_Tchar_ram_U                                    |     0.015 |
|           d_U                                                                 |    <0.001 |
|             KMPAlgorithmPrISMA_pref_ram_U                                     |    <0.001 |
|           grp_KMPAlgorithmPrISMA_FunzionePrefisso_fu_328                      |     0.003 |
|           pref_U                                                              |    <0.001 |
|             KMPAlgorithmPrISMA_pref_ram_U                                     |    <0.001 |
|     KMPAlgorithmPrISMA_3                                                      |     0.025 |
|       inst                                                                    |     0.025 |
|         KMPAlgorithmPrISMA_DMA_In_if_U                                        |    <0.001 |
|           DMA_In_V_data_V_fifo                                                |    <0.001 |
|           DMA_In_V_last_V_fifo                                                |    <0.001 |
|           rs                                                                  |    <0.001 |
|         KMPAlgorithmPrISMA_DMA_Out_if_U                                       |    <0.001 |
|           DMA_Out_V_data_V_fifo                                               |    <0.001 |
|           DMA_Out_V_last_V_fifo                                               |    <0.001 |
|           rs                                                                  |    <0.001 |
|         KMPAlgorithmPrISMA_U                                                  |     0.024 |
|           Pchar_U                                                             |    <0.001 |
|             KMPAlgorithmPrISMA_Pchar_ram_U                                    |    <0.001 |
|               ram_reg_0_127_0_0                                               |    <0.001 |
|               ram_reg_0_127_1_1                                               |    <0.001 |
|               ram_reg_0_127_2_2                                               |    <0.001 |
|               ram_reg_0_127_3_3                                               |    <0.001 |
|               ram_reg_0_127_4_4                                               |    <0.001 |
|               ram_reg_0_127_5_5                                               |    <0.001 |
|               ram_reg_0_127_6_6                                               |    <0.001 |
|               ram_reg_0_127_7_7                                               |    <0.001 |
|               ram_reg_0_31_0_0                                                |    <0.001 |
|               ram_reg_0_31_0_0__0                                             |    <0.001 |
|               ram_reg_0_31_0_0__1                                             |    <0.001 |
|               ram_reg_0_31_0_0__2                                             |    <0.001 |
|               ram_reg_0_31_0_0__3                                             |    <0.001 |
|               ram_reg_0_31_0_0__4                                             |    <0.001 |
|               ram_reg_0_31_0_0__5                                             |    <0.001 |
|               ram_reg_0_31_0_0__6                                             |    <0.001 |
|           Tchar_U                                                             |     0.015 |
|             KMPAlgorithmPrISMA_Tchar_ram_U                                    |     0.015 |
|           d_U                                                                 |     0.001 |
|             KMPAlgorithmPrISMA_pref_ram_U                                     |     0.001 |
|           grp_KMPAlgorithmPrISMA_FunzionePrefisso_fu_328                      |     0.003 |
|           pref_U                                                              |    <0.001 |
|             KMPAlgorithmPrISMA_pref_ram_U                                     |    <0.001 |
|     axi_dma_0                                                                 |     0.012 |
|       U0                                                                      |     0.012 |
|         INCLUDE_MM2S_SOF_EOF_GENERATOR.I_MM2S_DMA_MNGR                        |    <0.001 |
|           GEN_MM2S_DMA_CONTROL.GEN_SIMPLE_DMA_MODE.I_MM2S_SMPL_SM             |    <0.001 |
|           GEN_MM2S_DMA_CONTROL.I_MM2S_CMDSTS                                  |    <0.001 |
|           GEN_MM2S_DMA_CONTROL.I_MM2S_STS_MNGR                                |    <0.001 |
|         INCLUDE_S2MM_SOF_EOF_GENERATOR.I_S2MM_DMA_MNGR                        |    <0.001 |
|           GEN_S2MM_DMA_CONTROL.GEN_SIMPLE_DMA_MODE.I_S2MM_SMPL_SM             |    <0.001 |
|           GEN_S2MM_DMA_CONTROL.I_S2MM_CMDSTS                                  |    <0.001 |
|           GEN_S2MM_DMA_CONTROL.I_S2MM_STS_MNGR                                |    <0.001 |
|         I_AXI_DMA_REG_MODULE                                                  |    <0.001 |
|           GEN_AXI_LITE_IF.AXI_LITE_IF_I                                       |    <0.001 |
|           GEN_MM2S_REGISTERS.I_MM2S_DMA_REGISTER                              |    <0.001 |
|           GEN_S2MM_REGISTERS.I_S2MM_DMA_REGISTER                              |    <0.001 |
|         I_PRMRY_DATAMOVER                                                     |     0.010 |
|           GEN_MM2S_FULL.I_MM2S_FULL_WRAPPER                                   |     0.005 |
|             ENABLE_AXIS_SKID.I_MM2S_SKID_BUF                                  |    <0.001 |
|             GEN_INCLUDE_MM2S_SF.I_RD_SF                                       |     0.003 |
|               I_DATA_FIFO                                                     |     0.003 |
|                 BLK_MEM.I_SYNC_FIFOGEN_FIFO                                   |     0.003 |
|                   FAMILY_SUPPORTED.I_SYNC_FIFO_BRAM                           |     0.003 |
|                     inst_fifo_gen                                             |     0.003 |
|                       gconvfifo.rf                                            |     0.003 |
|                         grf.rf                                                |     0.003 |
|                           gntv_or_sync_fifo.gl0.rd                            |    <0.001 |
|                             gr1.rfwft                                         |    <0.001 |
|                             grss.gdc.dc                                       |    <0.001 |
|                               gsym_dc.dc                                      |    <0.001 |
|                             grss.rsts                                         |    <0.001 |
|                             rpntr                                             |    <0.001 |
|                           gntv_or_sync_fifo.gl0.wr                            |    <0.001 |
|                             gwss.wsts                                         |    <0.001 |
|                             wpntr                                             |    <0.001 |
|                           gntv_or_sync_fifo.mem                               |     0.003 |
|                             gbm.gbmg.gbmgb.ngecc.bmg                          |     0.003 |
|                               inst_blk_mem_gen                                |     0.003 |
|                                 gnativebmg.native_blk_mem_gen                 |     0.003 |
|                                   valid.cstr                                  |     0.003 |
|                                     ramloop[0].ram.r                          |     0.003 |
|                                       prim_noinit.ram                         |     0.003 |
|               OMIT_DRE_CNTL.I_DRE_CNTL_FIFO                                   |    <0.001 |
|                 USE_SRL_FIFO.I_SYNC_FIFO                                      |    <0.001 |
|                   I_SRL_FIFO_RBU_F                                            |    <0.001 |
|                     CNTR_INCR_DECR_ADDN_F_I                                   |    <0.001 |
|             I_ADDR_CNTL                                                       |    <0.001 |
|             I_CMD_STATUS                                                      |    <0.001 |
|               GEN_INCLUDE_STATUS_FIFO.I_STS_FIFO                              |    <0.001 |
|               I_CMD_FIFO                                                      |    <0.001 |
|             I_MSTR_PCC                                                        |    <0.001 |
|             I_RD_DATA_CNTL                                                    |    <0.001 |
|             I_RD_STATUS_CNTLR                                                 |    <0.001 |
|             I_RESET                                                           |    <0.001 |
|           GEN_S2MM_FULL.I_S2MM_FULL_WRAPPER                                   |     0.005 |
|             ENABLE_AXIS_SKID.I_S2MM_STRM_SKID_BUF                             |    <0.001 |
|             GEN_ENABLE_INDET_BTT_SF.I_INDET_BTT                               |     0.001 |
|               ENABLE_AXIS_SKID.I_INDET_BTT_SKID_BUF                           |    <0.001 |
|               I_DATA_FIFO                                                     |    <0.001 |
|                 BLK_MEM.I_SYNC_FIFOGEN_FIFO                                   |    <0.001 |
|                   FAMILY_SUPPORTED.I_SYNC_FIFO_BRAM                           |    <0.001 |
|                     inst_fifo_gen                                             |    <0.001 |
|                       gconvfifo.rf                                            |    <0.001 |
|                         grf.rf                                                |    <0.001 |
|                           gntv_or_sync_fifo.gl0.rd                            |    <0.001 |
|                             gr1.rfwft                                         |    <0.001 |
|                             grss.rsts                                         |    <0.001 |
|                             rpntr                                             |    <0.001 |
|                           gntv_or_sync_fifo.gl0.wr                            |    <0.001 |
|                             gwss.wsts                                         |    <0.001 |
|                             wpntr                                             |    <0.001 |
|                           gntv_or_sync_fifo.mem                               |    <0.001 |
|                             gbm.gbmg.gbmgb.ngecc.bmg                          |    <0.001 |
|                               inst_blk_mem_gen                                |    <0.001 |
|                                 gnativebmg.native_blk_mem_gen                 |    <0.001 |
|                                   valid.cstr                                  |    <0.001 |
|                                     ramloop[0].ram.r                          |    <0.001 |
|                                       prim_noinit.ram                         |    <0.001 |
|               I_XD_FIFO                                                       |    <0.001 |
|                 NON_BLK_MEM.I_SYNC_FIFOGEN_FIFO                               |    <0.001 |
|                   FAMILY_SUPPORTED.I_SYNC_FIFO_BRAM                           |    <0.001 |
|                     inst_fifo_gen                                             |    <0.001 |
|                       gconvfifo.rf                                            |    <0.001 |
|                         grf.rf                                                |    <0.001 |
|                           gntv_or_sync_fifo.gl0.rd                            |    <0.001 |
|                             grhf.rhf                                          |    <0.001 |
|                             grss.gdc.dc                                       |    <0.001 |
|                               gsym_dc.dc                                      |    <0.001 |
|                             grss.rsts                                         |    <0.001 |
|                             rpntr                                             |    <0.001 |
|                           gntv_or_sync_fifo.gl0.wr                            |    <0.001 |
|                             gwss.wsts                                         |    <0.001 |
|                             wpntr                                             |    <0.001 |
|                           gntv_or_sync_fifo.mem                               |    <0.001 |
|                             gdm.dm                                            |    <0.001 |
|                               RAM_reg_0_7_0_5                                 |    <0.001 |
|                               RAM_reg_0_7_6_8                                 |    <0.001 |
|             GEN_INCLUDE_IBTTCC.I_S2MM_MSTR_IBTTCC                             |     0.001 |
|             GEN_INCLUDE_REALIGNER.I_S2MM_REALIGNER                            |     0.002 |
|               GEN_INCLUDE_SCATTER.I_S2MM_SCATTER                              |     0.001 |
|                 I_MSSAI_SKID_BUF                                              |    <0.001 |
|                 I_TSTRB_FIFO                                                  |    <0.001 |
|                   USE_SRL_FIFO.I_SYNC_FIFO                                    |    <0.001 |
|                     I_SRL_FIFO_RBU_F                                          |    <0.001 |
|                       CNTR_INCR_DECR_ADDN_F_I                                 |    <0.001 |
|                       DYNSHREG_F_I                                            |    <0.001 |
|                 SLICE_INSERTION                                               |    <0.001 |
|               I_DRE_CNTL_FIFO                                                 |    <0.001 |
|                 USE_SRL_FIFO.I_SYNC_FIFO                                      |    <0.001 |
|                   I_SRL_FIFO_RBU_F                                            |    <0.001 |
|                     CNTR_INCR_DECR_ADDN_F_I                                   |    <0.001 |
|                     DYNSHREG_F_I                                              |    <0.001 |
|             I_ADDR_CNTL                                                       |    <0.001 |
|             I_CMD_STATUS                                                      |    <0.001 |
|               GEN_INCLUDE_STATUS_FIFO.I_STS_FIFO                              |    <0.001 |
|               I_CMD_FIFO                                                      |    <0.001 |
|             I_RESET                                                           |    <0.001 |
|             I_S2MM_MMAP_SKID_BUF                                              |    <0.001 |
|             I_WR_DATA_CNTL                                                    |    <0.001 |
|             I_WR_STATUS_CNTLR                                                 |    <0.001 |
|               GEN_ENABLE_INDET_BTT.I_SF_DATA_CNTL_STATUS_FIFO                 |    <0.001 |
|                 USE_SRL_FIFO.I_SYNC_FIFO                                      |    <0.001 |
|                   I_SRL_FIFO_RBU_F                                            |    <0.001 |
|                     CNTR_INCR_DECR_ADDN_F_I                                   |    <0.001 |
|                     DYNSHREG_F_I                                              |    <0.001 |
|               I_WRESP_STATUS_FIFO                                             |    <0.001 |
|                 USE_SRL_FIFO.I_SYNC_FIFO                                      |    <0.001 |
|                   I_SRL_FIFO_RBU_F                                            |    <0.001 |
|                     CNTR_INCR_DECR_ADDN_F_I                                   |    <0.001 |
|                     DYNSHREG_F_I                                              |    <0.001 |
|         I_RST_MODULE                                                          |    <0.001 |
|           GEN_RESET_FOR_MM2S.RESET_I                                          |    <0.001 |
|           GEN_RESET_FOR_S2MM.RESET_I                                          |    <0.001 |
|           REG_HRD_RST                                                         |    <0.001 |
|           REG_HRD_RST_OUT                                                     |    <0.001 |
|     axi_dma_1                                                                 |     0.012 |
|       U0                                                                      |     0.012 |
|         INCLUDE_MM2S_SOF_EOF_GENERATOR.I_MM2S_DMA_MNGR                        |    <0.001 |
|           GEN_MM2S_DMA_CONTROL.GEN_SIMPLE_DMA_MODE.I_MM2S_SMPL_SM             |    <0.001 |
|           GEN_MM2S_DMA_CONTROL.I_MM2S_CMDSTS                                  |    <0.001 |
|           GEN_MM2S_DMA_CONTROL.I_MM2S_STS_MNGR                                |    <0.001 |
|         INCLUDE_S2MM_SOF_EOF_GENERATOR.I_S2MM_DMA_MNGR                        |    <0.001 |
|           GEN_S2MM_DMA_CONTROL.GEN_SIMPLE_DMA_MODE.I_S2MM_SMPL_SM             |    <0.001 |
|           GEN_S2MM_DMA_CONTROL.I_S2MM_CMDSTS                                  |    <0.001 |
|           GEN_S2MM_DMA_CONTROL.I_S2MM_STS_MNGR                                |    <0.001 |
|         I_AXI_DMA_REG_MODULE                                                  |    <0.001 |
|           GEN_AXI_LITE_IF.AXI_LITE_IF_I                                       |    <0.001 |
|           GEN_MM2S_REGISTERS.I_MM2S_DMA_REGISTER                              |    <0.001 |
|           GEN_S2MM_REGISTERS.I_S2MM_DMA_REGISTER                              |    <0.001 |
|         I_PRMRY_DATAMOVER                                                     |     0.010 |
|           GEN_MM2S_FULL.I_MM2S_FULL_WRAPPER                                   |     0.004 |
|             ENABLE_AXIS_SKID.I_MM2S_SKID_BUF                                  |    <0.001 |
|             GEN_INCLUDE_MM2S_SF.I_RD_SF                                       |     0.003 |
|               I_DATA_FIFO                                                     |     0.003 |
|                 BLK_MEM.I_SYNC_FIFOGEN_FIFO                                   |     0.003 |
|                   FAMILY_SUPPORTED.I_SYNC_FIFO_BRAM                           |     0.003 |
|                     inst_fifo_gen                                             |     0.003 |
|                       gconvfifo.rf                                            |     0.003 |
|                         grf.rf                                                |     0.003 |
|                           gntv_or_sync_fifo.gl0.rd                            |    <0.001 |
|                             gr1.rfwft                                         |    <0.001 |
|                             grss.gdc.dc                                       |    <0.001 |
|                               gsym_dc.dc                                      |    <0.001 |
|                             grss.rsts                                         |    <0.001 |
|                             rpntr                                             |    <0.001 |
|                           gntv_or_sync_fifo.gl0.wr                            |    <0.001 |
|                             gwss.wsts                                         |    <0.001 |
|                             wpntr                                             |    <0.001 |
|                           gntv_or_sync_fifo.mem                               |     0.003 |
|                             gbm.gbmg.gbmgb.ngecc.bmg                          |     0.003 |
|                               inst_blk_mem_gen                                |     0.003 |
|                                 gnativebmg.native_blk_mem_gen                 |     0.003 |
|                                   valid.cstr                                  |     0.003 |
|                                     ramloop[0].ram.r                          |     0.003 |
|                                       prim_noinit.ram                         |     0.003 |
|               OMIT_DRE_CNTL.I_DRE_CNTL_FIFO                                   |    <0.001 |
|                 USE_SRL_FIFO.I_SYNC_FIFO                                      |    <0.001 |
|                   I_SRL_FIFO_RBU_F                                            |    <0.001 |
|                     CNTR_INCR_DECR_ADDN_F_I                                   |    <0.001 |
|             I_ADDR_CNTL                                                       |    <0.001 |
|             I_CMD_STATUS                                                      |    <0.001 |
|               GEN_INCLUDE_STATUS_FIFO.I_STS_FIFO                              |    <0.001 |
|               I_CMD_FIFO                                                      |    <0.001 |
|             I_MSTR_PCC                                                        |    <0.001 |
|             I_RD_DATA_CNTL                                                    |    <0.001 |
|             I_RD_STATUS_CNTLR                                                 |    <0.001 |
|             I_RESET                                                           |    <0.001 |
|           GEN_S2MM_FULL.I_S2MM_FULL_WRAPPER                                   |     0.006 |
|             ENABLE_AXIS_SKID.I_S2MM_STRM_SKID_BUF                             |    <0.001 |
|             GEN_ENABLE_INDET_BTT_SF.I_INDET_BTT                               |     0.001 |
|               ENABLE_AXIS_SKID.I_INDET_BTT_SKID_BUF                           |    <0.001 |
|               I_DATA_FIFO                                                     |    <0.001 |
|                 BLK_MEM.I_SYNC_FIFOGEN_FIFO                                   |    <0.001 |
|                   FAMILY_SUPPORTED.I_SYNC_FIFO_BRAM                           |    <0.001 |
|                     inst_fifo_gen                                             |    <0.001 |
|                       gconvfifo.rf                                            |    <0.001 |
|                         grf.rf                                                |    <0.001 |
|                           gntv_or_sync_fifo.gl0.rd                            |    <0.001 |
|                             gr1.rfwft                                         |    <0.001 |
|                             grss.rsts                                         |    <0.001 |
|                             rpntr                                             |    <0.001 |
|                           gntv_or_sync_fifo.gl0.wr                            |    <0.001 |
|                             gwss.wsts                                         |    <0.001 |
|                             wpntr                                             |    <0.001 |
|                           gntv_or_sync_fifo.mem                               |    <0.001 |
|                             gbm.gbmg.gbmgb.ngecc.bmg                          |    <0.001 |
|                               inst_blk_mem_gen                                |    <0.001 |
|                                 gnativebmg.native_blk_mem_gen                 |    <0.001 |
|                                   valid.cstr                                  |    <0.001 |
|                                     ramloop[0].ram.r                          |    <0.001 |
|                                       prim_noinit.ram                         |    <0.001 |
|               I_XD_FIFO                                                       |    <0.001 |
|                 NON_BLK_MEM.I_SYNC_FIFOGEN_FIFO                               |    <0.001 |
|                   FAMILY_SUPPORTED.I_SYNC_FIFO_BRAM                           |    <0.001 |
|                     inst_fifo_gen                                             |    <0.001 |
|                       gconvfifo.rf                                            |    <0.001 |
|                         grf.rf                                                |    <0.001 |
|                           gntv_or_sync_fifo.gl0.rd                            |    <0.001 |
|                             grhf.rhf                                          |    <0.001 |
|                             grss.gdc.dc                                       |    <0.001 |
|                               gsym_dc.dc                                      |    <0.001 |
|                             grss.rsts                                         |    <0.001 |
|                             rpntr                                             |    <0.001 |
|                           gntv_or_sync_fifo.gl0.wr                            |    <0.001 |
|                             gwss.wsts                                         |    <0.001 |
|                             wpntr                                             |    <0.001 |
|                           gntv_or_sync_fifo.mem                               |    <0.001 |
|                             gdm.dm                                            |    <0.001 |
|                               RAM_reg_0_7_0_5                                 |    <0.001 |
|                               RAM_reg_0_7_6_8                                 |    <0.001 |
|             GEN_INCLUDE_IBTTCC.I_S2MM_MSTR_IBTTCC                             |     0.001 |
|             GEN_INCLUDE_REALIGNER.I_S2MM_REALIGNER                            |     0.002 |
|               GEN_INCLUDE_SCATTER.I_S2MM_SCATTER                              |     0.001 |
|                 I_MSSAI_SKID_BUF                                              |    <0.001 |
|                 I_TSTRB_FIFO                                                  |    <0.001 |
|                   USE_SRL_FIFO.I_SYNC_FIFO                                    |    <0.001 |
|                     I_SRL_FIFO_RBU_F                                          |    <0.001 |
|                       CNTR_INCR_DECR_ADDN_F_I                                 |    <0.001 |
|                       DYNSHREG_F_I                                            |    <0.001 |
|                 SLICE_INSERTION                                               |    <0.001 |
|               I_DRE_CNTL_FIFO                                                 |    <0.001 |
|                 USE_SRL_FIFO.I_SYNC_FIFO                                      |    <0.001 |
|                   I_SRL_FIFO_RBU_F                                            |    <0.001 |
|                     CNTR_INCR_DECR_ADDN_F_I                                   |    <0.001 |
|                     DYNSHREG_F_I                                              |    <0.001 |
|             I_ADDR_CNTL                                                       |    <0.001 |
|             I_CMD_STATUS                                                      |    <0.001 |
|               GEN_INCLUDE_STATUS_FIFO.I_STS_FIFO                              |    <0.001 |
|               I_CMD_FIFO                                                      |    <0.001 |
|             I_RESET                                                           |    <0.001 |
|             I_S2MM_MMAP_SKID_BUF                                              |    <0.001 |
|             I_WR_DATA_CNTL                                                    |    <0.001 |
|             I_WR_STATUS_CNTLR                                                 |    <0.001 |
|               GEN_ENABLE_INDET_BTT.I_SF_DATA_CNTL_STATUS_FIFO                 |    <0.001 |
|                 USE_SRL_FIFO.I_SYNC_FIFO                                      |    <0.001 |
|                   I_SRL_FIFO_RBU_F                                            |    <0.001 |
|                     CNTR_INCR_DECR_ADDN_F_I                                   |    <0.001 |
|                     DYNSHREG_F_I                                              |    <0.001 |
|               I_WRESP_STATUS_FIFO                                             |    <0.001 |
|                 USE_SRL_FIFO.I_SYNC_FIFO                                      |    <0.001 |
|                   I_SRL_FIFO_RBU_F                                            |    <0.001 |
|                     CNTR_INCR_DECR_ADDN_F_I                                   |    <0.001 |
|                     DYNSHREG_F_I                                              |    <0.001 |
|         I_RST_MODULE                                                          |    <0.001 |
|           GEN_RESET_FOR_MM2S.RESET_I                                          |    <0.001 |
|           GEN_RESET_FOR_S2MM.RESET_I                                          |    <0.001 |
|           REG_HRD_RST                                                         |    <0.001 |
|           REG_HRD_RST_OUT                                                     |    <0.001 |
|     axi_dma_2                                                                 |     0.011 |
|       U0                                                                      |     0.011 |
|         INCLUDE_MM2S_SOF_EOF_GENERATOR.I_MM2S_DMA_MNGR                        |    <0.001 |
|           GEN_MM2S_DMA_CONTROL.GEN_SIMPLE_DMA_MODE.I_MM2S_SMPL_SM             |    <0.001 |
|           GEN_MM2S_DMA_CONTROL.I_MM2S_CMDSTS                                  |    <0.001 |
|           GEN_MM2S_DMA_CONTROL.I_MM2S_STS_MNGR                                |    <0.001 |
|         INCLUDE_S2MM_SOF_EOF_GENERATOR.I_S2MM_DMA_MNGR                        |    <0.001 |
|           GEN_S2MM_DMA_CONTROL.GEN_SIMPLE_DMA_MODE.I_S2MM_SMPL_SM             |    <0.001 |
|           GEN_S2MM_DMA_CONTROL.I_S2MM_CMDSTS                                  |    <0.001 |
|           GEN_S2MM_DMA_CONTROL.I_S2MM_STS_MNGR                                |    <0.001 |
|         I_AXI_DMA_REG_MODULE                                                  |    <0.001 |
|           GEN_AXI_LITE_IF.AXI_LITE_IF_I                                       |    <0.001 |
|           GEN_MM2S_REGISTERS.I_MM2S_DMA_REGISTER                              |    <0.001 |
|           GEN_S2MM_REGISTERS.I_S2MM_DMA_REGISTER                              |    <0.001 |
|         I_PRMRY_DATAMOVER                                                     |     0.009 |
|           GEN_MM2S_FULL.I_MM2S_FULL_WRAPPER                                   |     0.005 |
|             ENABLE_AXIS_SKID.I_MM2S_SKID_BUF                                  |    <0.001 |
|             GEN_INCLUDE_MM2S_SF.I_RD_SF                                       |     0.003 |
|               I_DATA_FIFO                                                     |     0.003 |
|                 BLK_MEM.I_SYNC_FIFOGEN_FIFO                                   |     0.003 |
|                   FAMILY_SUPPORTED.I_SYNC_FIFO_BRAM                           |     0.003 |
|                     inst_fifo_gen                                             |     0.003 |
|                       gconvfifo.rf                                            |     0.003 |
|                         grf.rf                                                |     0.003 |
|                           gntv_or_sync_fifo.gl0.rd                            |    <0.001 |
|                             gr1.rfwft                                         |    <0.001 |
|                             grss.gdc.dc                                       |    <0.001 |
|                               gsym_dc.dc                                      |    <0.001 |
|                             grss.rsts                                         |    <0.001 |
|                             rpntr                                             |    <0.001 |
|                           gntv_or_sync_fifo.gl0.wr                            |    <0.001 |
|                             gwss.wsts                                         |    <0.001 |
|                             wpntr                                             |    <0.001 |
|                           gntv_or_sync_fifo.mem                               |     0.003 |
|                             gbm.gbmg.gbmgb.ngecc.bmg                          |     0.003 |
|                               inst_blk_mem_gen                                |     0.003 |
|                                 gnativebmg.native_blk_mem_gen                 |     0.003 |
|                                   valid.cstr                                  |     0.003 |
|                                     ramloop[0].ram.r                          |     0.003 |
|                                       prim_noinit.ram                         |     0.003 |
|               OMIT_DRE_CNTL.I_DRE_CNTL_FIFO                                   |    <0.001 |
|                 USE_SRL_FIFO.I_SYNC_FIFO                                      |    <0.001 |
|                   I_SRL_FIFO_RBU_F                                            |    <0.001 |
|                     CNTR_INCR_DECR_ADDN_F_I                                   |    <0.001 |
|             I_ADDR_CNTL                                                       |    <0.001 |
|             I_CMD_STATUS                                                      |    <0.001 |
|               GEN_INCLUDE_STATUS_FIFO.I_STS_FIFO                              |    <0.001 |
|               I_CMD_FIFO                                                      |    <0.001 |
|             I_MSTR_PCC                                                        |    <0.001 |
|             I_RD_DATA_CNTL                                                    |    <0.001 |
|             I_RD_STATUS_CNTLR                                                 |    <0.001 |
|             I_RESET                                                           |    <0.001 |
|           GEN_S2MM_FULL.I_S2MM_FULL_WRAPPER                                   |     0.005 |
|             ENABLE_AXIS_SKID.I_S2MM_STRM_SKID_BUF                             |    <0.001 |
|             GEN_ENABLE_INDET_BTT_SF.I_INDET_BTT                               |    <0.001 |
|               ENABLE_AXIS_SKID.I_INDET_BTT_SKID_BUF                           |    <0.001 |
|               I_DATA_FIFO                                                     |    <0.001 |
|                 BLK_MEM.I_SYNC_FIFOGEN_FIFO                                   |    <0.001 |
|                   FAMILY_SUPPORTED.I_SYNC_FIFO_BRAM                           |    <0.001 |
|                     inst_fifo_gen                                             |    <0.001 |
|                       gconvfifo.rf                                            |    <0.001 |
|                         grf.rf                                                |    <0.001 |
|                           gntv_or_sync_fifo.gl0.rd                            |    <0.001 |
|                             gr1.rfwft                                         |    <0.001 |
|                             grss.rsts                                         |    <0.001 |
|                             rpntr                                             |    <0.001 |
|                           gntv_or_sync_fifo.gl0.wr                            |    <0.001 |
|                             gwss.wsts                                         |    <0.001 |
|                             wpntr                                             |    <0.001 |
|                           gntv_or_sync_fifo.mem                               |    <0.001 |
|                             gbm.gbmg.gbmgb.ngecc.bmg                          |    <0.001 |
|                               inst_blk_mem_gen                                |    <0.001 |
|                                 gnativebmg.native_blk_mem_gen                 |    <0.001 |
|                                   valid.cstr                                  |    <0.001 |
|                                     ramloop[0].ram.r                          |    <0.001 |
|                                       prim_noinit.ram                         |    <0.001 |
|               I_XD_FIFO                                                       |    <0.001 |
|                 NON_BLK_MEM.I_SYNC_FIFOGEN_FIFO                               |    <0.001 |
|                   FAMILY_SUPPORTED.I_SYNC_FIFO_BRAM                           |    <0.001 |
|                     inst_fifo_gen                                             |    <0.001 |
|                       gconvfifo.rf                                            |    <0.001 |
|                         grf.rf                                                |    <0.001 |
|                           gntv_or_sync_fifo.gl0.rd                            |    <0.001 |
|                             grhf.rhf                                          |    <0.001 |
|                             grss.gdc.dc                                       |    <0.001 |
|                               gsym_dc.dc                                      |    <0.001 |
|                             grss.rsts                                         |    <0.001 |
|                             rpntr                                             |    <0.001 |
|                           gntv_or_sync_fifo.gl0.wr                            |    <0.001 |
|                             gwss.wsts                                         |    <0.001 |
|                             wpntr                                             |    <0.001 |
|                           gntv_or_sync_fifo.mem                               |    <0.001 |
|                             gdm.dm                                            |    <0.001 |
|                               RAM_reg_0_7_0_5                                 |    <0.001 |
|                               RAM_reg_0_7_6_8                                 |    <0.001 |
|             GEN_INCLUDE_IBTTCC.I_S2MM_MSTR_IBTTCC                             |    <0.001 |
|             GEN_INCLUDE_REALIGNER.I_S2MM_REALIGNER                            |     0.001 |
|               GEN_INCLUDE_SCATTER.I_S2MM_SCATTER                              |     0.001 |
|                 I_MSSAI_SKID_BUF                                              |    <0.001 |
|                 I_TSTRB_FIFO                                                  |    <0.001 |
|                   USE_SRL_FIFO.I_SYNC_FIFO                                    |    <0.001 |
|                     I_SRL_FIFO_RBU_F                                          |    <0.001 |
|                       CNTR_INCR_DECR_ADDN_F_I                                 |    <0.001 |
|                       DYNSHREG_F_I                                            |    <0.001 |
|                 SLICE_INSERTION                                               |    <0.001 |
|               I_DRE_CNTL_FIFO                                                 |    <0.001 |
|                 USE_SRL_FIFO.I_SYNC_FIFO                                      |    <0.001 |
|                   I_SRL_FIFO_RBU_F                                            |    <0.001 |
|                     CNTR_INCR_DECR_ADDN_F_I                                   |    <0.001 |
|                     DYNSHREG_F_I                                              |    <0.001 |
|             I_ADDR_CNTL                                                       |    <0.001 |
|             I_CMD_STATUS                                                      |    <0.001 |
|               GEN_INCLUDE_STATUS_FIFO.I_STS_FIFO                              |    <0.001 |
|               I_CMD_FIFO                                                      |    <0.001 |
|             I_RESET                                                           |    <0.001 |
|             I_S2MM_MMAP_SKID_BUF                                              |    <0.001 |
|             I_WR_DATA_CNTL                                                    |    <0.001 |
|             I_WR_STATUS_CNTLR                                                 |    <0.001 |
|               GEN_ENABLE_INDET_BTT.I_SF_DATA_CNTL_STATUS_FIFO                 |    <0.001 |
|                 USE_SRL_FIFO.I_SYNC_FIFO                                      |    <0.001 |
|                   I_SRL_FIFO_RBU_F                                            |    <0.001 |
|                     CNTR_INCR_DECR_ADDN_F_I                                   |    <0.001 |
|                     DYNSHREG_F_I                                              |    <0.001 |
|               I_WRESP_STATUS_FIFO                                             |    <0.001 |
|                 USE_SRL_FIFO.I_SYNC_FIFO                                      |    <0.001 |
|                   I_SRL_FIFO_RBU_F                                            |    <0.001 |
|                     CNTR_INCR_DECR_ADDN_F_I                                   |    <0.001 |
|                     DYNSHREG_F_I                                              |    <0.001 |
|         I_RST_MODULE                                                          |    <0.001 |
|           GEN_RESET_FOR_MM2S.RESET_I                                          |    <0.001 |
|           GEN_RESET_FOR_S2MM.RESET_I                                          |    <0.001 |
|           REG_HRD_RST                                                         |    <0.001 |
|           REG_HRD_RST_OUT                                                     |    <0.001 |
|     axi_dma_3                                                                 |     0.011 |
|       U0                                                                      |     0.011 |
|         INCLUDE_MM2S_SOF_EOF_GENERATOR.I_MM2S_DMA_MNGR                        |    <0.001 |
|           GEN_MM2S_DMA_CONTROL.GEN_SIMPLE_DMA_MODE.I_MM2S_SMPL_SM             |    <0.001 |
|           GEN_MM2S_DMA_CONTROL.I_MM2S_CMDSTS                                  |    <0.001 |
|           GEN_MM2S_DMA_CONTROL.I_MM2S_STS_MNGR                                |    <0.001 |
|         INCLUDE_S2MM_SOF_EOF_GENERATOR.I_S2MM_DMA_MNGR                        |    <0.001 |
|           GEN_S2MM_DMA_CONTROL.GEN_SIMPLE_DMA_MODE.I_S2MM_SMPL_SM             |    <0.001 |
|           GEN_S2MM_DMA_CONTROL.I_S2MM_CMDSTS                                  |    <0.001 |
|           GEN_S2MM_DMA_CONTROL.I_S2MM_STS_MNGR                                |    <0.001 |
|         I_AXI_DMA_REG_MODULE                                                  |    <0.001 |
|           GEN_AXI_LITE_IF.AXI_LITE_IF_I                                       |    <0.001 |
|           GEN_MM2S_REGISTERS.I_MM2S_DMA_REGISTER                              |    <0.001 |
|           GEN_S2MM_REGISTERS.I_S2MM_DMA_REGISTER                              |    <0.001 |
|         I_PRMRY_DATAMOVER                                                     |     0.009 |
|           GEN_MM2S_FULL.I_MM2S_FULL_WRAPPER                                   |     0.004 |
|             ENABLE_AXIS_SKID.I_MM2S_SKID_BUF                                  |    <0.001 |
|             GEN_INCLUDE_MM2S_SF.I_RD_SF                                       |     0.003 |
|               I_DATA_FIFO                                                     |     0.003 |
|                 BLK_MEM.I_SYNC_FIFOGEN_FIFO                                   |     0.003 |
|                   FAMILY_SUPPORTED.I_SYNC_FIFO_BRAM                           |     0.003 |
|                     inst_fifo_gen                                             |     0.003 |
|                       gconvfifo.rf                                            |     0.003 |
|                         grf.rf                                                |     0.003 |
|                           gntv_or_sync_fifo.gl0.rd                            |    <0.001 |
|                             gr1.rfwft                                         |    <0.001 |
|                             grss.gdc.dc                                       |    <0.001 |
|                               gsym_dc.dc                                      |    <0.001 |
|                             grss.rsts                                         |    <0.001 |
|                             rpntr                                             |    <0.001 |
|                           gntv_or_sync_fifo.gl0.wr                            |    <0.001 |
|                             gwss.wsts                                         |    <0.001 |
|                             wpntr                                             |    <0.001 |
|                           gntv_or_sync_fifo.mem                               |     0.003 |
|                             gbm.gbmg.gbmgb.ngecc.bmg                          |     0.003 |
|                               inst_blk_mem_gen                                |     0.003 |
|                                 gnativebmg.native_blk_mem_gen                 |     0.003 |
|                                   valid.cstr                                  |     0.003 |
|                                     ramloop[0].ram.r                          |     0.003 |
|                                       prim_noinit.ram                         |     0.003 |
|               OMIT_DRE_CNTL.I_DRE_CNTL_FIFO                                   |    <0.001 |
|                 USE_SRL_FIFO.I_SYNC_FIFO                                      |    <0.001 |
|                   I_SRL_FIFO_RBU_F                                            |    <0.001 |
|                     CNTR_INCR_DECR_ADDN_F_I                                   |    <0.001 |
|             I_ADDR_CNTL                                                       |    <0.001 |
|             I_CMD_STATUS                                                      |    <0.001 |
|               GEN_INCLUDE_STATUS_FIFO.I_STS_FIFO                              |    <0.001 |
|               I_CMD_FIFO                                                      |    <0.001 |
|             I_MSTR_PCC                                                        |    <0.001 |
|             I_RD_DATA_CNTL                                                    |    <0.001 |
|             I_RD_STATUS_CNTLR                                                 |    <0.001 |
|             I_RESET                                                           |    <0.001 |
|           GEN_S2MM_FULL.I_S2MM_FULL_WRAPPER                                   |     0.005 |
|             ENABLE_AXIS_SKID.I_S2MM_STRM_SKID_BUF                             |    <0.001 |
|             GEN_ENABLE_INDET_BTT_SF.I_INDET_BTT                               |    <0.001 |
|               ENABLE_AXIS_SKID.I_INDET_BTT_SKID_BUF                           |    <0.001 |
|               I_DATA_FIFO                                                     |    <0.001 |
|                 BLK_MEM.I_SYNC_FIFOGEN_FIFO                                   |    <0.001 |
|                   FAMILY_SUPPORTED.I_SYNC_FIFO_BRAM                           |    <0.001 |
|                     inst_fifo_gen                                             |    <0.001 |
|                       gconvfifo.rf                                            |    <0.001 |
|                         grf.rf                                                |    <0.001 |
|                           gntv_or_sync_fifo.gl0.rd                            |    <0.001 |
|                             gr1.rfwft                                         |    <0.001 |
|                             grss.rsts                                         |    <0.001 |
|                             rpntr                                             |    <0.001 |
|                           gntv_or_sync_fifo.gl0.wr                            |    <0.001 |
|                             gwss.wsts                                         |    <0.001 |
|                             wpntr                                             |    <0.001 |
|                           gntv_or_sync_fifo.mem                               |    <0.001 |
|                             gbm.gbmg.gbmgb.ngecc.bmg                          |    <0.001 |
|                               inst_blk_mem_gen                                |    <0.001 |
|                                 gnativebmg.native_blk_mem_gen                 |    <0.001 |
|                                   valid.cstr                                  |    <0.001 |
|                                     ramloop[0].ram.r                          |    <0.001 |
|                                       prim_noinit.ram                         |    <0.001 |
|               I_XD_FIFO                                                       |    <0.001 |
|                 NON_BLK_MEM.I_SYNC_FIFOGEN_FIFO                               |    <0.001 |
|                   FAMILY_SUPPORTED.I_SYNC_FIFO_BRAM                           |    <0.001 |
|                     inst_fifo_gen                                             |    <0.001 |
|                       gconvfifo.rf                                            |    <0.001 |
|                         grf.rf                                                |    <0.001 |
|                           gntv_or_sync_fifo.gl0.rd                            |    <0.001 |
|                             grhf.rhf                                          |    <0.001 |
|                             grss.gdc.dc                                       |    <0.001 |
|                               gsym_dc.dc                                      |    <0.001 |
|                             grss.rsts                                         |    <0.001 |
|                             rpntr                                             |    <0.001 |
|                           gntv_or_sync_fifo.gl0.wr                            |    <0.001 |
|                             gwss.wsts                                         |    <0.001 |
|                             wpntr                                             |    <0.001 |
|                           gntv_or_sync_fifo.mem                               |    <0.001 |
|                             gdm.dm                                            |    <0.001 |
|                               RAM_reg_0_7_0_5                                 |    <0.001 |
|                               RAM_reg_0_7_6_8                                 |    <0.001 |
|             GEN_INCLUDE_IBTTCC.I_S2MM_MSTR_IBTTCC                             |    <0.001 |
|             GEN_INCLUDE_REALIGNER.I_S2MM_REALIGNER                            |     0.001 |
|               GEN_INCLUDE_SCATTER.I_S2MM_SCATTER                              |     0.001 |
|                 I_MSSAI_SKID_BUF                                              |    <0.001 |
|                 I_TSTRB_FIFO                                                  |    <0.001 |
|                   USE_SRL_FIFO.I_SYNC_FIFO                                    |    <0.001 |
|                     I_SRL_FIFO_RBU_F                                          |    <0.001 |
|                       CNTR_INCR_DECR_ADDN_F_I                                 |    <0.001 |
|                       DYNSHREG_F_I                                            |    <0.001 |
|                 SLICE_INSERTION                                               |    <0.001 |
|               I_DRE_CNTL_FIFO                                                 |    <0.001 |
|                 USE_SRL_FIFO.I_SYNC_FIFO                                      |    <0.001 |
|                   I_SRL_FIFO_RBU_F                                            |    <0.001 |
|                     CNTR_INCR_DECR_ADDN_F_I                                   |    <0.001 |
|                     DYNSHREG_F_I                                              |    <0.001 |
|             I_ADDR_CNTL                                                       |    <0.001 |
|             I_CMD_STATUS                                                      |    <0.001 |
|               GEN_INCLUDE_STATUS_FIFO.I_STS_FIFO                              |    <0.001 |
|               I_CMD_FIFO                                                      |    <0.001 |
|             I_RESET                                                           |    <0.001 |
|             I_S2MM_MMAP_SKID_BUF                                              |    <0.001 |
|             I_WR_DATA_CNTL                                                    |    <0.001 |
|             I_WR_STATUS_CNTLR                                                 |    <0.001 |
|               GEN_ENABLE_INDET_BTT.I_SF_DATA_CNTL_STATUS_FIFO                 |    <0.001 |
|                 USE_SRL_FIFO.I_SYNC_FIFO                                      |    <0.001 |
|                   I_SRL_FIFO_RBU_F                                            |    <0.001 |
|                     CNTR_INCR_DECR_ADDN_F_I                                   |    <0.001 |
|                     DYNSHREG_F_I                                              |    <0.001 |
|               I_WRESP_STATUS_FIFO                                             |    <0.001 |
|                 USE_SRL_FIFO.I_SYNC_FIFO                                      |    <0.001 |
|                   I_SRL_FIFO_RBU_F                                            |    <0.001 |
|                     CNTR_INCR_DECR_ADDN_F_I                                   |    <0.001 |
|                     DYNSHREG_F_I                                              |    <0.001 |
|         I_RST_MODULE                                                          |    <0.001 |
|           GEN_RESET_FOR_MM2S.RESET_I                                          |    <0.001 |
|           GEN_RESET_FOR_S2MM.RESET_I                                          |    <0.001 |
|           REG_HRD_RST                                                         |    <0.001 |
|           REG_HRD_RST_OUT                                                     |    <0.001 |
|     axi_mem_intercon                                                          |     0.013 |
|       m00_couplers                                                            |     0.002 |
|         auto_pc                                                               |     0.002 |
|           inst                                                                |     0.002 |
|             gen_axi4_axi3.axi3_conv_inst                                      |     0.002 |
|               USE_READ.USE_SPLIT_R.read_addr_inst                             |     0.001 |
|                 USE_R_CHANNEL.cmd_queue                                       |    <0.001 |
|                   inst                                                        |    <0.001 |
|                     fifo_gen_inst                                             |    <0.001 |
|                       inst_fifo_gen                                           |    <0.001 |
|                         gconvfifo.rf                                          |    <0.001 |
|                           grf.rf                                              |    <0.001 |
|                             gntv_or_sync_fifo.gl0.rd                          |    <0.001 |
|                               gr1.rfwft                                       |    <0.001 |
|                               grss.rsts                                       |    <0.001 |
|                               rpntr                                           |    <0.001 |
|                             gntv_or_sync_fifo.gl0.wr                          |    <0.001 |
|                               gwss.wsts                                       |    <0.001 |
|                               wpntr                                           |    <0.001 |
|                             gntv_or_sync_fifo.mem                             |    <0.001 |
|                               gdm.dm                                          |    <0.001 |
|                                 RAM_reg_0_31_0_0                              |    <0.001 |
|                             rstblk                                            |    <0.001 |
|               USE_WRITE.USE_SPLIT_W.write_resp_inst                           |    <0.001 |
|               USE_WRITE.write_addr_inst                                       |    <0.001 |
|                 USE_BURSTS.cmd_queue                                          |    <0.001 |
|                   inst                                                        |    <0.001 |
|                     fifo_gen_inst                                             |    <0.001 |
|                       inst_fifo_gen                                           |    <0.001 |
|                         gconvfifo.rf                                          |    <0.001 |
|                           grf.rf                                              |    <0.001 |
|                             gntv_or_sync_fifo.gl0.rd                          |    <0.001 |
|                               gr1.rfwft                                       |    <0.001 |
|                               grss.rsts                                       |    <0.001 |
|                               rpntr                                           |    <0.001 |
|                             gntv_or_sync_fifo.gl0.wr                          |    <0.001 |
|                               gwss.wsts                                       |    <0.001 |
|                               wpntr                                           |    <0.001 |
|                             gntv_or_sync_fifo.mem                             |    <0.001 |
|                               gdm.dm                                          |    <0.001 |
|                                 RAM_reg_0_31_0_5                              |    <0.001 |
|                                 RAM_reg_0_31_6_6                              |    <0.001 |
|                             rstblk                                            |    <0.001 |
|                 USE_B_CHANNEL.cmd_b_queue                                     |    <0.001 |
|                   inst                                                        |    <0.001 |
|                     fifo_gen_inst                                             |    <0.001 |
|                       inst_fifo_gen                                           |    <0.001 |
|                         gconvfifo.rf                                          |    <0.001 |
|                           grf.rf                                              |    <0.001 |
|                             gntv_or_sync_fifo.gl0.rd                          |    <0.001 |
|                               gr1.rfwft                                       |    <0.001 |
|                               grss.rsts                                       |    <0.001 |
|                               rpntr                                           |    <0.001 |
|                             gntv_or_sync_fifo.gl0.wr                          |    <0.001 |
|                               gwss.wsts                                       |    <0.001 |
|                               wpntr                                           |    <0.001 |
|                             gntv_or_sync_fifo.mem                             |    <0.001 |
|                               gdm.dm                                          |    <0.001 |
|                                 RAM_reg_0_31_0_4                              |    <0.001 |
|                             rstblk                                            |    <0.001 |
|               USE_WRITE.write_data_inst                                       |    <0.001 |
|       s00_couplers                                                            |     0.001 |
|         auto_us                                                               |     0.001 |
|           inst                                                                |     0.001 |
|             gen_upsizer.gen_full_upsizer.axi_upsizer_inst                     |     0.001 |
|               USE_READ.gen_non_fifo_r_upsizer.mi_register_slice_inst          |    <0.001 |
|                 r_pipe                                                        |    <0.001 |
|               USE_READ.gen_non_fifo_r_upsizer.read_data_inst                  |    <0.001 |
|               USE_READ.read_addr_inst                                         |    <0.001 |
|                 GEN_CMD_QUEUE.cmd_queue                                       |    <0.001 |
|               si_register_slice_inst                                          |    <0.001 |
|                 ar_pipe                                                       |    <0.001 |
|       s01_couplers                                                            |    <0.001 |
|         auto_us                                                               |    <0.001 |
|           inst                                                                |    <0.001 |
|             gen_upsizer.gen_full_upsizer.axi_upsizer_inst                     |    <0.001 |
|               USE_WRITE.gen_non_fifo_w_upsizer.write_data_inst                |    <0.001 |
|               USE_WRITE.write_addr_inst                                       |    <0.001 |
|                 GEN_CMD_QUEUE.cmd_queue                                       |    <0.001 |
|               si_register_slice_inst                                          |    <0.001 |
|                 aw_pipe                                                       |    <0.001 |
|       s02_couplers                                                            |     0.001 |
|         auto_us                                                               |     0.001 |
|           inst                                                                |     0.001 |
|             gen_upsizer.gen_full_upsizer.axi_upsizer_inst                     |     0.001 |
|               USE_READ.gen_non_fifo_r_upsizer.mi_register_slice_inst          |    <0.001 |
|                 r_pipe                                                        |    <0.001 |
|               USE_READ.gen_non_fifo_r_upsizer.read_data_inst                  |    <0.001 |
|               USE_READ.read_addr_inst                                         |    <0.001 |
|                 GEN_CMD_QUEUE.cmd_queue                                       |    <0.001 |
|               si_register_slice_inst                                          |    <0.001 |
|                 ar_pipe                                                       |    <0.001 |
|       s03_couplers                                                            |    <0.001 |
|         auto_us                                                               |    <0.001 |
|           inst                                                                |    <0.001 |
|             gen_upsizer.gen_full_upsizer.axi_upsizer_inst                     |    <0.001 |
|               USE_WRITE.gen_non_fifo_w_upsizer.write_data_inst                |    <0.001 |
|               USE_WRITE.write_addr_inst                                       |    <0.001 |
|                 GEN_CMD_QUEUE.cmd_queue                                       |    <0.001 |
|               si_register_slice_inst                                          |    <0.001 |
|                 aw_pipe                                                       |    <0.001 |
|       s04_couplers                                                            |     0.001 |
|         auto_us                                                               |     0.001 |
|           inst                                                                |     0.001 |
|             gen_upsizer.gen_full_upsizer.axi_upsizer_inst                     |     0.001 |
|               USE_READ.gen_non_fifo_r_upsizer.mi_register_slice_inst          |    <0.001 |
|                 r_pipe                                                        |    <0.001 |
|               USE_READ.gen_non_fifo_r_upsizer.read_data_inst                  |    <0.001 |
|               USE_READ.read_addr_inst                                         |    <0.001 |
|                 GEN_CMD_QUEUE.cmd_queue                                       |    <0.001 |
|               si_register_slice_inst                                          |    <0.001 |
|                 ar_pipe                                                       |    <0.001 |
|       s05_couplers                                                            |    <0.001 |
|         auto_us                                                               |    <0.001 |
|           inst                                                                |    <0.001 |
|             gen_upsizer.gen_full_upsizer.axi_upsizer_inst                     |    <0.001 |
|               USE_WRITE.gen_non_fifo_w_upsizer.write_data_inst                |    <0.001 |
|               USE_WRITE.write_addr_inst                                       |    <0.001 |
|                 GEN_CMD_QUEUE.cmd_queue                                       |    <0.001 |
|               si_register_slice_inst                                          |    <0.001 |
|                 aw_pipe                                                       |    <0.001 |
|       s06_couplers                                                            |     0.001 |
|         auto_us                                                               |     0.001 |
|           inst                                                                |     0.001 |
|             gen_upsizer.gen_full_upsizer.axi_upsizer_inst                     |     0.001 |
|               USE_READ.gen_non_fifo_r_upsizer.mi_register_slice_inst          |    <0.001 |
|                 r_pipe                                                        |    <0.001 |
|               USE_READ.gen_non_fifo_r_upsizer.read_data_inst                  |    <0.001 |
|               USE_READ.read_addr_inst                                         |    <0.001 |
|                 GEN_CMD_QUEUE.cmd_queue                                       |    <0.001 |
|               si_register_slice_inst                                          |    <0.001 |
|                 ar_pipe                                                       |    <0.001 |
|       s07_couplers                                                            |    <0.001 |
|         auto_us                                                               |    <0.001 |
|           inst                                                                |    <0.001 |
|             gen_upsizer.gen_full_upsizer.axi_upsizer_inst                     |    <0.001 |
|               USE_WRITE.gen_non_fifo_w_upsizer.write_data_inst                |    <0.001 |
|               USE_WRITE.write_addr_inst                                       |    <0.001 |
|                 GEN_CMD_QUEUE.cmd_queue                                       |    <0.001 |
|               si_register_slice_inst                                          |    <0.001 |
|                 aw_pipe                                                       |    <0.001 |
|       xbar                                                                    |     0.003 |
|         inst                                                                  |     0.003 |
|           gen_samd.crossbar_samd                                              |     0.003 |
|             addr_arbiter_ar                                                   |    <0.001 |
|             addr_arbiter_aw                                                   |    <0.001 |
|             gen_decerr_slave.decerr_slave_inst                                |    <0.001 |
|             gen_master_slots[0].gen_mi_write.gen_bid_decoder.bid_decoder_inst |    <0.001 |
|             gen_master_slots[0].gen_mi_write.wdata_mux_w                      |    <0.001 |
|               gen_wmux.wmux_aw_fifo                                           |    <0.001 |
|                 gen_srls[0].gen_rep[0].srl_nx1                                |    <0.001 |
|                 gen_srls[0].gen_rep[1].srl_nx1                                |    <0.001 |
|                 gen_srls[0].gen_rep[2].srl_nx1                                |    <0.001 |
|             gen_master_slots[0].reg_slice_mi                                  |    <0.001 |
|               b_pipe                                                          |    <0.001 |
|               r_pipe                                                          |    <0.001 |
|             gen_master_slots[1].gen_mi_write.wdata_mux_w                      |    <0.001 |
|               gen_wmux.wmux_aw_fifo                                           |    <0.001 |
|                 gen_srls[0].gen_rep[0].srl_nx1                                |    <0.001 |
|                 gen_srls[0].gen_rep[1].srl_nx1                                |    <0.001 |
|                 gen_srls[0].gen_rep[2].srl_nx1                                |    <0.001 |
|             gen_master_slots[1].reg_slice_mi                                  |    <0.001 |
|               b_pipe                                                          |    <0.001 |
|               r_pipe                                                          |    <0.001 |
|             gen_slave_slots[0].gen_si_read.si_transactor_ar                   |    <0.001 |
|             gen_slave_slots[1].gen_si_write.si_transactor_aw                  |    <0.001 |
|             gen_slave_slots[1].gen_si_write.splitter_aw_si                    |    <0.001 |
|             gen_slave_slots[1].gen_si_write.wdata_router_w                    |    <0.001 |
|               wrouter_aw_fifo                                                 |    <0.001 |
|                 gen_srls[0].gen_rep[0].srl_nx1                                |    <0.001 |
|             gen_slave_slots[2].gen_si_read.si_transactor_ar                   |    <0.001 |
|             gen_slave_slots[3].gen_si_write.si_transactor_aw                  |    <0.001 |
|             gen_slave_slots[3].gen_si_write.splitter_aw_si                    |    <0.001 |
|             gen_slave_slots[3].gen_si_write.wdata_router_w                    |    <0.001 |
|               wrouter_aw_fifo                                                 |    <0.001 |
|                 gen_srls[0].gen_rep[0].srl_nx1                                |    <0.001 |
|             gen_slave_slots[4].gen_si_read.si_transactor_ar                   |    <0.001 |
|             gen_slave_slots[5].gen_si_write.si_transactor_aw                  |    <0.001 |
|             gen_slave_slots[5].gen_si_write.splitter_aw_si                    |    <0.001 |
|             gen_slave_slots[5].gen_si_write.wdata_router_w                    |    <0.001 |
|               wrouter_aw_fifo                                                 |    <0.001 |
|                 gen_srls[0].gen_rep[0].srl_nx1                                |    <0.001 |
|             gen_slave_slots[6].gen_si_read.si_transactor_ar                   |    <0.001 |
|             gen_slave_slots[7].gen_si_write.si_transactor_aw                  |    <0.001 |
|             gen_slave_slots[7].gen_si_write.splitter_aw_si                    |    <0.001 |
|             gen_slave_slots[7].gen_si_write.wdata_router_w                    |    <0.001 |
|               wrouter_aw_fifo                                                 |    <0.001 |
|                 gen_srls[0].gen_rep[0].srl_nx1                                |    <0.001 |
|             splitter_aw_mi                                                    |    <0.001 |
|     processing_system7_0                                                      |     1.535 |
|       inst                                                                    |     1.535 |
|     processing_system7_0_axi_periph                                           |     0.005 |
|       s00_couplers                                                            |     0.004 |
|         auto_pc                                                               |     0.004 |
|           inst                                                                |     0.004 |
|             gen_axilite.gen_b2s_conv.axilite_b2s                              |     0.004 |
|               RD.ar_channel_0                                                 |    <0.001 |
|                 ar_cmd_fsm_0                                                  |    <0.001 |
|                 cmd_translator_0                                              |    <0.001 |
|                   incr_cmd_0                                                  |    <0.001 |
|                   wrap_cmd_0                                                  |    <0.001 |
|               RD.r_channel_0                                                  |     0.001 |
|                 rd_data_fifo_0                                                |    <0.001 |
|                 transaction_fifo_0                                            |    <0.001 |
|               SI_REG                                                          |     0.001 |
|                 ar_pipe                                                       |    <0.001 |
|                 aw_pipe                                                       |    <0.001 |
|                 b_pipe                                                        |    <0.001 |
|                 r_pipe                                                        |    <0.001 |
|               WR.aw_channel_0                                                 |    <0.001 |
|                 aw_cmd_fsm_0                                                  |    <0.001 |
|                 cmd_translator_0                                              |    <0.001 |
|                   incr_cmd_0                                                  |    <0.001 |
|                   wrap_cmd_0                                                  |    <0.001 |
|               WR.b_channel_0                                                  |    <0.001 |
|                 bid_fifo_0                                                    |    <0.001 |
|                 bresp_fifo_0                                                  |    <0.001 |
|       xbar                                                                    |    <0.001 |
|         inst                                                                  |    <0.001 |
|           gen_sasd.crossbar_sasd_0                                            |    <0.001 |
|             addr_arbiter_inst                                                 |    <0.001 |
|             gen_decerr.decerr_slave_inst                                      |    <0.001 |
|             reg_slice_r                                                       |    <0.001 |
|             splitter_ar                                                       |    <0.001 |
|             splitter_aw                                                       |    <0.001 |
|     rst_processing_system7_0_100M                                             |    <0.001 |
|       U0                                                                      |    <0.001 |
|         EXT_LPF                                                               |    <0.001 |
|           ACTIVE_LOW_EXT.ACT_LO_EXT                                           |    <0.001 |
|         SEQ                                                                   |    <0.001 |
|           SEQ_COUNTER                                                         |    <0.001 |
+-------------------------------------------------------------------------------+-----------+


